-------------------------------------------------------------------------------
Test set: put.ai.games.tester.TesterTest
-------------------------------------------------------------------------------
Tests run: 7, Failures: 0, Errors: 0, Skipped: 0, Time elapsed: 0.055 sec
